<?xml version="1.0" encoding="utf-8"?>
<!-- Generator: Adobe Illustrator 25.0.1, SVG Export Plug-In . SVG Version: 6.00 Build 0)  -->
<svg version="1.1" id="Calque_1" xmlns="http://www.w3.org/2000/svg" x="0px"
     y="0px"
     viewBox="0 0 1000 1000" style="enable-background:new 0 0 1000 1000;" xml:space="preserve">
<style type="text/css">
	.st0{fill:#FFFFFF;}
	.st1{fill:#C14747;}
</style>
    <circle class="st0" cx="499.9" cy="499.8" r="150"/>
    <g>
	<path class="st1" d="M551.3,509.8H448.5c-3.8,0-6.9-4.5-6.9-10c0-5.5,3.1-10,6.9-10h102.8c3.8,0,6.9,4.5,6.9,10
		C558.1,505.4,555.1,509.8,551.3,509.8z"/>
</g>
</svg>
