<?xml version="1.0" encoding="utf-8"?>
<!-- Generator: Adobe Illustrator 25.0.1, SVG Export Plug-In . SVG Version: 6.00 Build 0)  -->
<svg version="1.1" id="Calque_1" xmlns="http://www.w3.org/2000/svg" x="0px"
     y="0px"
     viewBox="0 0 1000 1000" style="enable-background:new 0 0 1000 1000;" xml:space="preserve">
<style type="text/css">
	.st0{fill:#006BAD;}
	.st1{fill:#043B80;}
	.st2{fill:#009ED6;}
	.st3{fill:#EFEFEF;}
	.st4{fill:#AAAAAA;}
</style>
    <path class="st0" d="M823.4,709.7L563.2,880.3c-19.2,12.7-41.7,19.2-64.2,19.2s-45-6.6-64.2-19.2L174.6,709.7
	c-43.1-28.6-42.7-92.3,1.4-119.5l161.7-101.2h322.5L822,590.1C866,617.3,866.5,681.1,823.4,709.7z"/>
    <path class="st1" d="M823.4,709.7L563.2,880.3c-19.2,12.7-41.7,19.2-64.2,19.2V488.9h161.3L822,590.1
	C866,617.3,866.5,681.1,823.4,709.7z"/>
    <polygon class="st2"
             points="656.5,440.9 622.3,486.8 375.7,486.8 341.5,440.9 364,359.3 423.1,313.9 574.9,313.9 634,359.3 "/>
    <polygon class="st0" points="656.5,440.9 622.3,486.8 499,486.8 499,313.9 574.9,313.9 634,359.3 "/>
    <path class="st3" d="M680.9,529.5l-34.7,45H351.8l-34.2-45c14.5-53.9,9.4-34.7,23.9-88.6c29.1,13.1,89.1,35.2,157.5,35.2
	c68.9,0,128.4-22,157.5-35.2C671.5,496.2,665.9,476.1,680.9,529.5z"/>
    <path class="st4"
          d="M680.9,529.5l-34.7,45H499v-98.4c68.9,0,128.4-22,157.5-35.2C671.5,496.2,665.9,476.1,680.9,529.5z"/>
    <path class="st2" d="M697.7,660.8c-3.3,1.9-90.5,49.7-198.8,49.7s-195.5-47.8-198.8-49.7c-9.4-5.6-14.1-16.4-11.2-26.7
	c17.3-63.3,12.7-46.4,28.6-104.5c44.1,15.9,124.7,40.3,181.4,40.3s137.8-24.4,181.9-40.3c14.5,54.8,11.3,42.2,28.1,104.5
	C711.8,644.3,707.1,655.1,697.7,660.8z"/>
    <path class="st0" d="M697.7,660.8c-3.3,1.9-90.5,49.7-198.8,49.7V569.8c56.7,0,137.8-24.4,181.9-40.3
	c14.5,54.8,11.3,42.2,28.1,104.5C711.8,644.3,707.1,655.1,697.7,660.8z"/>
    <path class="st3" d="M634,359.3c-35.2,11.7-82.5,23-135,23s-99.8-11.2-135-23c14.5-53.9,9.8-37,23.4-86.7l59.1-45.5l52.5,0.5h52.5
	l59.1,45C624.2,322.3,619.5,304.5,634,359.3z"/>
    <path class="st4" d="M634,359.3c-35.2,11.7-82.5,23-135,23V227.6h52.5l59.1,45C624.2,322.3,619.5,304.5,634,359.3z"/>
    <path class="st2" d="M610.6,272.6c-31.9,8.9-69.8,15.9-111.6,15.9s-79.7-7-111.6-15.9c15-55.3,7.5-28.7,32.8-121.1
	c8-30.9,36.1-52,67.5-52h22.5c31.4,0,59.5,21.1,67.5,52C600.2,232.6,593.7,210.8,610.6,272.6z"/>
    <path class="st0" d="M610.6,272.6c-31.9,8.9-69.8,15.9-111.6,15.9V99.5h11.3c31.4,0,59.5,21.1,67.5,52
	C600.2,232.6,593.7,210.8,610.6,272.6z"/>
</svg>
